Prosper_Exploratory_Analysis_by_Kyle_Wilbert.utf8.md
…
## # A tibble: 33 x 2
##    LoanOriginationQuarter     n
##    <fct>                  <int>
##  1 Q4 2005                   22
##  2 Q1 2006                  315
##  3 Q2 2006                 1254
##  4 Q3 2006                 1934
##  5 Q4 2006                 2403
##  6 Q1 2007                 3079
##  7 Q2 2007                 3118
##  8 Q3 2007                 2671
##  9 Q4 2007                 2592
## 10 Q1 2008                 3074
## # ... with 23 more rows
…
